1 1
2 2
1 2
2 1
19 33
21 84
87 88
93 6
7 80
79 40
91 95
26 71
72 3
34 24
28 82
64 50
69 86
84 40
19 92
31 16
47 39
36 50
71 80
6 97
86 27
98 58
74 10
72 23
30 12
16 93
38 99
62 71
9 28
79 68
26 27
83 39
43 88
61 26
23 91
25 22
80 3
39 92
31 70
61 70
53 19
26 5
49 47
90 93
74 99
46 71
17 86
70 9
1 85
33 23
620 436
294 728
416 462
709 472
336 56
850 188
885 116
840 322
626 860
350 937
394 707
665 502
607 405
384 736
606 350
218 925
348 347
525 569
932 715
89 304
145 15
947 164
421 229
663 971
983 263
314 728
842 586
928 377
463 666
363 435
453 748
350 165
307 655
414 748
483 36
209 857
733 740
217 31
996 710
729 323
410 155
374 259
548 587
631 805
531 264
19 346
116 652
909 394
614 282
608 265
6821 9793
5325 2041
7231 4739
9389 2940
5458 8919
4653 3627
4130 5484
5425 8566
2973 1120
4768 5115
4169 8286
6578 1461
9615 3976
3324 8505
1759 8443
8108 7348
6646 7863
1884 3
514 7335
2348 6047
8196 2005
34 1416
812 4821
6554 524
4997 492
8552 1856
3156 6388
9092 6294
7843 6512
7889 6658
4976 6473
8889 9384
7758 7637
586 3381
7954 920
6503 8281
7005 9580
9600 7373
6509 824
9600 9437
4129 8683
90 3675
7392 5427
7140 1006
5942 516
7203 7930
4459 1610
141 576
7265 1328
6969 6435
3572 1075
9807 3987
4663 6114
6660 5827
6791 2137
2797 7282
2443 5522
5098 4238
4484 6320
3576 4339
7055 9892
3073 4580
4922 7503
5415 7800
8799 7814
4667 2425
9930 5133
4396 9699
4668 7186
3652 3584
2211 4555
4081 7964
7868 1005
4480 5703
9496 3333
8740 8376
5798 4699
7930 1246
6175 3172
6282 5367
9587 1516
1494 9230
5584 6544
7971 4134
9065 5979
8306 1712
5540 5430
9044 8316
3002 5480
5195 9961
2946 1529
4297 7182
8943 3872
9542 7227
2800 7888
4480 2762
1113 8723
3747 8260
7271 8189
4069 1487
